{
    "KPlugin": {
        "Authors": [
            {
                "Email": "mgraesslin@kde.org",
                "Name": "Martin Gräßlin",
                "Name[ar]": "Martin Gräßlin",
                "Name[az]": "Martin Gräßlin",
                "Name[bg]": "Martin Gräßlin",
                "Name[ca@valencia]": "Martin Gräßlin",
                "Name[ca]": "Martin Gräßlin",
                "Name[cs]": "Martin Gräßlin",
                "Name[de]": "Martin Gräßlin",
                "Name[en_GB]": "Martin Gräßlin",
                "Name[es]": "Martin Gräßlin",
                "Name[eu]": "Martin Gräßlin",
                "Name[fi]": "Martin Gräßlin",
                "Name[fr]": "Martin Gräßlin",
                "Name[ia]": "Martin Gräßlin",
                "Name[id]": "Martin Gräßlin",
                "Name[is]": "Martin Gräßlin",
                "Name[it]": "Martin Gräßlin",
                "Name[ja]": "Martin Gräßlin",
                "Name[ka]": "მარტინ გრესსლინი",
                "Name[ko]": "Martin Gräßlin",
                "Name[lt]": "Martin Gräßlin",
                "Name[nl]": "Martin Gräßlin",
                "Name[nn]": "Martin Gräßlin",
                "Name[pl]": "Martin Gräßlin",
                "Name[pt]": "Martin Gräßlin",
                "Name[pt_BR]": "Martin Gräßlin",
                "Name[ro]": "Martin Gräßlin",
                "Name[ru]": "Martin Gräßlin",
                "Name[sk]": "Martin Gräßlin",
                "Name[sl]": "Martin Gräßlin",
                "Name[sv]": "Martin Gräßlin",
                "Name[tr]": "Martin Gräßlin",
                "Name[uk]": "Martin Gräßlin",
                "Name[vi]": "Martin Gräßlin",
                "Name[x-test]": "xxMartin Gräßlinxx",
                "Name[zh_CN]": "Martin Gräßlin",
                "Name[zh_TW]": "Martin Gräßlin"
            }
        ],
        "Description": "A Window Switcher layout showing all windows as thumbnails in a grid",
        "Description[ar]": "مخطط مبدل النوافذ يعرض كل النوافذ كمصغرات في شبكة",
        "Description[az]": "Bütün pəncərələri torda miniatürlər kimi göstərən pəncərə dəyişdirici maketi",
        "Description[bg]": "Оформление на програмата за превключване на прозорци, показващо всички прозорци като плочковидно подредени миниатюри",
        "Description[ca@valencia]": "Una disposició del commutador de finestres que mostra totes les finestres com a miniatures en una quadrícula",
        "Description[ca]": "Una disposició del commutador de finestres que mostra totes les finestres com a miniatures en una quadrícula",
        "Description[cs]": "Rozvržení přepínače oken zobrazující všechna okna jako miniatury v mřížce",
        "Description[de]": "Ein Fensterwechsler-Layout, das Vorschauen aller Fenster in einem Raster anzeigt",
        "Description[en_GB]": "A Window Switcher layout showing all windows as thumbnails in a grid",
        "Description[es]": "Un esquema de selección de ventanas que muestra todas las ventanas como miniaturas de una cuadrícula",
        "Description[eu]": "Leiho guztiak sareta batean koadro-txiki gisa erakusten dituen leiho-trukatzaile antolamendu bat",
        "Description[fi]": "Ikkunavaihtoasettelu, joka näyttää ikkunat pienoiskuvina ruudukossa",
        "Description[fr]": "Une disposition du sélecteur de fenêtres affichant toutes les fenêtres en vignettes dans une grille",
        "Description[ia]": "Un disposition de commutator de fenestra monstrante fenestras como miniaturas in un grillia",
        "Description[id]": "Sebuah tataletak Pengalih Jendela yang menampilkan semua jendela sebagai gambar-mini dalam sebuah kisi",
        "Description[it]": "Una disposizione del selettore delle finestre che mostra tutte le finestre come miniature in una griglia",
        "Description[ja]": "すべてのウィンドウをグリッド上にサムネイルとして表示するウィンドウスイッチャー",
        "Description[ka]": "ფანჯრების განლაგების გადართვა ყველა ფანჯრის ბადეში მინიატურების ჩვენების საშუალებით",
        "Description[ko]": "모든 창을 바둑판식으로 미리 보여 주는 창 전환기 레이아웃",
        "Description[lt]": "Langų perjungiklio išdėstymas, atvaizduojantis visus langus kaip miniatiūras tinkleliu",
        "Description[nl]": "Een indeling van de vensterwisselaar met alle vensters als miniaturen in een raster",
        "Description[nn]": "Vindaugsbytar som viser alle vindauga som miniatyrbilete i eit rutenett",
        "Description[pl]": "Przełącznik okien z ich miniaturami na siatce",
        "Description[pt]": "Uma disposição de mudança de janelas que mostra todas as janelas como miniaturas numa grelha",
        "Description[pt_BR]": "Um layout de mudança de janelas que mostra todas as janelas como miniaturas em uma grade",
        "Description[ro]": "Aranjament pentru comutatorul de ferestre arătând toate ferestrele ca miniaturi într-o grilă",
        "Description[ru]": "Переключатель окон в виде выровненных по сетке миниатюр окон",
        "Description[sk]": "Rozloženie prepínača okien zobrazujúce všetky okná ako miniatúry v mriežke",
        "Description[sl]": "Razporeditev preklopa oken, ki prikazuje vsa okna v mreži predoglednih sličic",
        "Description[sv]": "En layout för fönsterbyte som visar alla fönster som miniatyrbilder i ett rutnät",
        "Description[tr]": "Tüm pencereleri küçük görsel olarak bir ızgarada gösteren bir pencere değiştirici düzeni",
        "Description[uk]": "Компонування засобу перемикання вікон з мініатюрами всіх вікон у форматі ґратки",
        "Description[vi]": "Bố cục trình chuyển cửa sổ hiển thị tất cả các cửa sổ thành các hình nhỏ trong một lưới",
        "Description[x-test]": "xxA Window Switcher layout showing all windows as thumbnails in a gridxx",
        "Description[zh_CN]": "将窗口缩略图按表格显示的窗口切换器布局",
        "Description[zh_TW]": "用格線以縮圖顯示所有視窗的視窗切換器佈局",
        "Icon": "preferences-system-windows-switcher-present-windows",
        "Id": "present_windows",
        "License": "GPL",
        "Name": "Grid",
        "Name[ar]": "شبكة",
        "Name[az]": "Tor",
        "Name[bg]": "Плочки",
        "Name[ca@valencia]": "Quadrícula",
        "Name[ca]": "Quadrícula",
        "Name[cs]": "Mřížka",
        "Name[de]": "Gitter",
        "Name[en_GB]": "Grid",
        "Name[es]": "Cuadrícula",
        "Name[eu]": "Sareta",
        "Name[fi]": "Ruudukko",
        "Name[fr]": "Grille",
        "Name[ia]": "Grillia",
        "Name[id]": "Kisi",
        "Name[is]": "Reitir",
        "Name[it]": "Griglia",
        "Name[ja]": "グリッド",
        "Name[ka]": "ბადე",
        "Name[ko]": "격자",
        "Name[lt]": "Tinklelis",
        "Name[nl]": "Raster",
        "Name[nn]": "Rutenett",
        "Name[pl]": "Siatka",
        "Name[pt]": "Grelha",
        "Name[pt_BR]": "Grade",
        "Name[ro]": "Grilă",
        "Name[ru]": "Сетка",
        "Name[sk]": "Mriežka",
        "Name[sl]": "Mreža",
        "Name[sv]": "Rutnät",
        "Name[tr]": "Izgara",
        "Name[uk]": "Таблиця",
        "Name[vi]": "Lưới",
        "Name[x-test]": "xxGridxx",
        "Name[zh_CN]": "网格",
        "Name[zh_TW]": "格線",
        "ServiceTypes": [
            "KWin/WindowSwitcher"
        ],
        "Version": "1.0"
    },
    "X-Plasma-API": "declarativeappletscript",
    "X-Plasma-MainScript": "ui/main.qml"
}
