{
    "KPlugin": {
        "Icon": "",
        "Name": "National Geographic",
        "Name[ar]": "ناشيونال جيوغرافيك",
        "Name[az]": "National Geographic",
        "Name[bg]": "National Geographic",
        "Name[ca@valencia]": "National Geographic",
        "Name[ca]": "National Geographic",
        "Name[cs]": "National Geographic",
        "Name[da]": "National Geographic",
        "Name[de]": "National Geographic",
        "Name[en_GB]": "National Geographic",
        "Name[es]": "National Geographic",
        "Name[et]": "National Geographic",
        "Name[eu]": "National Geographic",
        "Name[fi]": "National Geographic",
        "Name[fr]": "National Geographic",
        "Name[gl]": "National Geographic",
        "Name[hu]": "National Geographic",
        "Name[ia]": "National Geographic",
        "Name[id]": "National Geographic",
        "Name[is]": "National Geographic",
        "Name[it]": "National Geographic",
        "Name[ja]": "ナショナルジオグラフィック",
        "Name[ka]": "National Geographic",
        "Name[ko]": "내셔널 지오그래픽",
        "Name[lt]": "National Geographic",
        "Name[nb]": "National Geographic",
        "Name[nl]": "National Geographic",
        "Name[nn]": "National Geographic",
        "Name[pl]": "National Geographic",
        "Name[pt]": "National Geographic",
        "Name[pt_BR]": "National Geographic",
        "Name[ro]": "National Geographic",
        "Name[ru]": "National Geographic",
        "Name[sk]": "National Geographic",
        "Name[sl]": "National Geographic",
        "Name[sv]": "National Geographic",
        "Name[tr]": "National Geographic",
        "Name[uk]": "National Geographic",
        "Name[vi]": "Hội Địa lí Quốc gia",
        "Name[x-test]": "xxNational Geographicxx",
        "Name[zh_CN]": "美国国家地理",
        "Name[zh_TW]": "國家地理"
    },
    "X-KDE-PlasmaPoTDProvider-Identifier": "natgeo"
}
